^C:\USERS\АЛЕНКА\DESKTOP\ПРАКТИКА\ALPATOVA-GORYNINA-EMELIN\ALGOEM\MAIN.CPP
/c /ZI /JMC /nologo /W3 /WX- /diagnostics:classic /sdl /Od /Oy- /D WIN32 /D _DEBUG /D _CONSOLE /D _UNICODE /D UNICODE /Gm- /EHsc /RTC1 /MDd /GS /fp:precise /permissive- /Zc:wchar_t /Zc:forScope /Zc:inline /Fo"DEBUG\\" /Fd"DEBUG\VC141.PDB" /Gd /TP /analyze- /FC C:\USERS\АЛЕНКА\DESKTOP\ПРАКТИКА\ALPATOVA-GORYNINA-EMELIN\ALGOEM\MAIN.CPP
^C:\USERS\АЛЕНКА\DESKTOP\ПРАКТИКА\ALPATOVA-GORYNINA-EMELIN\ALGOEM\CLOTHES.CPP
/c /ZI /JMC /nologo /W3 /WX- /diagnostics:classic /sdl /Od /Oy- /D WIN32 /D _DEBUG /D _CONSOLE /D _UNICODE /D UNICODE /Gm- /EHsc /RTC1 /MDd /GS /fp:precise /permissive- /Zc:wchar_t /Zc:forScope /Zc:inline /Fo"DEBUG\\" /Fd"DEBUG\VC141.PDB" /Gd /TP /analyze- /FC C:\USERS\АЛЕНКА\DESKTOP\ПРАКТИКА\ALPATOVA-GORYNINA-EMELIN\ALGOEM\CLOTHES.CPP
^E:\ALGOEM\ALGOEM\CLOTHES.CPP
/c /ZI /JMC /nologo /W3 /WX- /diagnostics:classic /sdl /Od /Oy- /D WIN32 /D _DEBUG /D _CONSOLE /D _UNICODE /D UNICODE /Gm- /EHsc /RTC1 /MDd /GS /fp:precise /permissive- /Zc:wchar_t /Zc:forScope /Zc:inline /Fo"DEBUG\\" /Fd"DEBUG\VC141.PDB" /Gd /TP /analyze- /FC E:\ALGOEM\ALGOEM\CLOTHES.CPP
^E:\ALGOEM\ALGOEM\MAIN.CPP
/c /ZI /JMC /nologo /W3 /WX- /diagnostics:classic /sdl /Od /Oy- /D WIN32 /D _DEBUG /D _CONSOLE /D _UNICODE /D UNICODE /Gm- /EHsc /RTC1 /MDd /GS /fp:precise /permissive- /Zc:wchar_t /Zc:forScope /Zc:inline /Fo"DEBUG\\" /Fd"DEBUG\VC141.PDB" /Gd /TP /analyze- /FC E:\ALGOEM\ALGOEM\MAIN.CPP
